// Jest Snapshot v1, https://goo.gl/fbAQLP

exports[`Accordion component matches snapshot 1`] = `
<DocumentFragment>
  .emotion-8 > * + * {
  margin-top: 0.75rem;
}

.emotion-3 {
  width: 100%;
  padding: 0.5rem 0 0;
  text-align: left;
}

.emotion-2 {
  display: -webkit-box;
  display: -webkit-flex;
  display: -ms-flexbox;
  display: flex;
  -webkit-flex-direction: column;
  -ms-flex-direction: column;
  flex-direction: column;
  box-shadow: 0 1px 3px 0 rgba(0,0,0,0.1),0 1px 2px 0 rgba(0,0,0,0.06);
  border-radius: 1rem;
  border: 1px solid #DCE3E9;
  overflow: hidden;
  height: 100%;
}

@media (max-width:40em) {
  .emotion-2 {
    box-shadow: 0 1px 3px 0 rgba(0,0,0,0.1),0 1px 2px 0 rgba(0,0,0,0.06);
    border: 0 1px 3px 0 rgba(0,0,0,0.1),0 1px 2px 0 rgba(0,0,0,0.06);
    border-bottom: none!important;
    border-radius: 1rem;
  }
}

.emotion-1 {
  display: -webkit-box;
  display: -webkit-flex;
  display: -ms-flexbox;
  display: flex;
  -webkit-flex-direction: column;
  -ms-flex-direction: column;
  flex-direction: column;
  -webkit-flex: 1;
  -ms-flex: 1;
  flex: 1;
  padding-top: 1rem;
  padding-bottom: 1rem;
  padding-left: 1rem;
  padding-right: 1rem;
  background-color: white;
}

.emotion-1 > * + * {
  margin-top: 0.75rem;
}

@media screen and (min-width:40em) {
  .emotion-1 > * + * {
    margin-top: 1rem;
  }
}

.emotion-0 {
  display: -webkit-box;
  display: -webkit-flex;
  display: -ms-flexbox;
  display: flex;
  -webkit-flex-direction: column;
  -ms-flex-direction: column;
  flex-direction: column;
  -webkit-flex-direction: row;
  -ms-flex-direction: row;
  flex-direction: row;
  -webkit-box-pack: justify;
  -webkit-justify-content: space-between;
  -ms-flex-pack: justify;
  justify-content: space-between;
  color: #2987cd;
  font-weight: 700;
}

.emotion-0 > * + * {
  margin-top: 0rem;
}

.emotion-4 {
  display: -webkit-box;
  display: -webkit-flex;
  display: -ms-flexbox;
  display: flex;
  -webkit-flex-direction: column;
  -ms-flex-direction: column;
  flex-direction: column;
  -webkit-flex-direction: row;
  -ms-flex-direction: row;
  flex-direction: row;
  -webkit-box-pack: justify;
  -webkit-justify-content: space-between;
  -ms-flex-pack: justify;
  justify-content: space-between;
  color: rgba(0,0,0,0.7);
  font-weight: 700;
}

.emotion-4 > * + * {
  margin-top: 0rem;
}

<div
    class="emotion-8"
    data-reach-accordion=""
  >
    <div
      data-reach-accordion-item=""
      data-state="open"
    >
      <button
        aria-controls="panel--1--0"
        aria-expanded="true"
        class="emotion-3"
        data-reach-accordion-button=""
        id="button--1--0"
      >
        <div
          class="emotion-2"
        >
          <div
            class="emotion-1"
          >
            <div
              class="emotion-0"
              color="#2987cd"
              font-weight="700"
            >
              <span>
                Title1
              </span>
              <span>
                <svg
                  aria-hidden="true"
                  class="svg-inline--fa fa-angle-up fa-w-10 "
                  data-icon="angle-up"
                  data-prefix="fas"
                  focusable="false"
                  role="img"
                  viewBox="0 0 320 512"
                  xmlns="http://www.w3.org/2000/svg"
                >
                  <path
                    d="M177 159.7l136 136c9.4 9.4 9.4 24.6 0 33.9l-22.6 22.6c-9.4 9.4-24.6 9.4-33.9 0L160 255.9l-96.4 96.4c-9.4 9.4-24.6 9.4-33.9 0L7 329.7c-9.4-9.4-9.4-24.6 0-33.9l136-136c9.4-9.5 24.6-9.5 34-.1z"
                    fill="currentColor"
                  />
                </svg>
              </span>
            </div>
            <div
              aria-labelledby="button--1--0"
              data-reach-accordion-panel=""
              data-state="open"
              id="panel--1--0"
              role="region"
              tabindex="-1"
            >
              Content1
            </div>
          </div>
        </div>
      </button>
    </div>
    <div
      data-reach-accordion-item=""
      data-state="collapsed"
    >
      <button
        aria-controls="panel--1--1"
        aria-expanded="false"
        class="emotion-3"
        data-reach-accordion-button=""
        id="button--1--1"
      >
        <div
          class="emotion-2"
        >
          <div
            class="emotion-1"
          >
            <div
              class="emotion-4"
              color="rgba(0, 0, 0, 0.7)"
              font-weight="700"
            >
              <span>
                Title2
              </span>
              <span>
                <svg
                  aria-hidden="true"
                  class="svg-inline--fa fa-angle-down fa-w-10 "
                  data-icon="angle-down"
                  data-prefix="fas"
                  focusable="false"
                  role="img"
                  viewBox="0 0 320 512"
                  xmlns="http://www.w3.org/2000/svg"
                >
                  <path
                    d="M143 352.3L7 216.3c-9.4-9.4-9.4-24.6 0-33.9l22.6-22.6c9.4-9.4 24.6-9.4 33.9 0l96.4 96.4 96.4-96.4c9.4-9.4 24.6-9.4 33.9 0l22.6 22.6c9.4 9.4 9.4 24.6 0 33.9l-136 136c-9.2 9.4-24.4 9.4-33.8 0z"
                    fill="currentColor"
                  />
                </svg>
              </span>
            </div>
            <div
              aria-labelledby="button--1--1"
              data-reach-accordion-panel=""
              data-state="collapsed"
              hidden=""
              id="panel--1--1"
              role="region"
              tabindex="-1"
            >
              Content2
            </div>
          </div>
        </div>
      </button>
    </div>
  </div>
</DocumentFragment>
`;
